{
  "__type__": "cc.AnimationClip",
  "_name": "right_key_clear",
  "_objFlags": 0,
  "_native": "",
  "_duration": 0.05,
  "sample": 60,
  "speed": 1,
  "wrapMode": 1,
  "curveData": {
    "comps": {
      "cc.Sprite": {
        "spriteFrame": [
          {
            "frame": 0,
            "value": {
              "__uuid__": "98b9c269-ec15-49a1-a1a0-0d67c3c4d84c"
            }
          },
          {
            "frame": 0.03333333333333333,
            "value": {
              "__uuid__": "98b9c269-ec15-49a1-a1a0-0d67c3c4d84c"
            }
          }
        ]
      }
    }
  },
  "events": []
}