{
  "__type__": "cc.AnimationClip",
  "_name": "up_key_clear",
  "_objFlags": 0,
  "_native": "",
  "_duration": 0.05,
  "sample": 60,
  "speed": 1,
  "wrapMode": 1,
  "curveData": {
    "comps": {
      "cc.Sprite": {
        "spriteFrame": [
          {
            "frame": 0,
            "value": {
              "__uuid__": "267de53d-78af-4632-8291-883adde2a5be"
            }
          },
          {
            "frame": 0.03333333333333333,
            "value": {
              "__uuid__": "267de53d-78af-4632-8291-883adde2a5be"
            }
          }
        ]
      }
    }
  },
  "events": []
}